eventBreachesCovid19 • eventBreachesCovid19
…
    Skip to contents

      eventBreachesCovid19

      eventBreachesCovid19.Rmd

library(eventBreachesCovid19)

dim(breach_events)
#> [1] 84  4

breach_events
#> # A tibble: 84 × 4
#>      day panel traveler_counts_pois worker_counts_pois
#>    <dbl> <chr>                <int>              <int>
#>  1     0 A                      270                 22
#>  2     1 A                      302                 24
#>  3     2 A                      301                 16
#>  4     3 A                      287                 17
#>  5     4 A                      254                 19
#>  6     5 A                      288                 17
#>  7     6 A                      292                 21
#>  8     7 A                      290                 19
#>  9     8 A                      275                 13
#> 10     9 A                      267                 24
#> # ℹ 74 more rows
…
